fixed acidity,volatile acidity,citric acid,residual sugar,chlorides,free sulfur dioxide,total sulfur dioxide,density,pH,sulphates,alcohol
8.3,0.61,0.3,2.1,0.084,11,50,0.9972,3.4,0.61,10.2
7.8,0.5,0.3,1.9,0.075,8,22,0.9959,3.31,0.56,10.4
8.1,0.545,0.18,1.9,0.08,13,35,0.9972,3.3,0.59,9
8.1,0.575,0.22,2.1,0.077,12,65,0.9967,3.29,0.51,9.2
7.2,0.49,0.24,2.2,0.07,5,36,0.996,3.33,0.48,9.4
8.1,0.575,0.22,2.1,0.077,12,65,0.9967,3.29,0.51,9.2
7.8,0.41,0.68,1.7,0.467,18,69,0.9973,3.08,1.31,9.3
6.2,0.63,0.31,1.7,0.088,15,64,0.9969,3.46,0.79,9.3
8,0.33,0.53,2.5,0.091,18,80,0.9976,3.37,0.8,9.6
8.1,0.785,0.52,2,0.122,37,153,0.9969,3.21,0.69,9.3
7.8,0.56,0.19,1.8,0.104,12,47,0.9964,3.19,0.93,9.5
8.4,0.62,0.09,2.2,0.084,11,108,0.9964,3.15,0.66,9.8
8.4,0.6,0.1,2.2,0.085,14,111,0.9964,3.15,0.66,9.8
10.1,0.31,0.44,2.3,0.08,22,46,0.9988,3.32,0.67,9.7
7.8,0.56,0.19,1.8,0.104,12,47,0.9964,3.19,0.93,9.5
9.4,0.4,0.31,2.2,0.09,13,62,0.9966,3.07,0.63,10.5
8.3,0.54,0.28,1.9,0.077,11,40,0.9978,3.39,0.61,10
7.8,0.56,0.12,2,0.082,7,28,0.997,3.37,0.5,9.4
8.8,0.55,0.04,2.2,0.119,14,56,0.9962,3.21,0.6,10.9
7,0.69,0.08,1.8,0.097,22,89,0.9959,3.34,0.54,9.2
7.3,1.07,0.09,1.7,0.178,10,89,0.9962,3.3,0.57,9
8.8,0.55,0.04,2.2,0.119,14,56,0.9962,3.21,0.6,10.9
7.3,0.695,0,2.5,0.075,3,13,0.998,3.49,0.52,9.2
8,0.71,0,2.6,0.08,11,34,0.9976,3.44,0.53,9.5
7.8,0.5,0.17,1.6,0.082,21,102,0.996,3.39,0.48,9.5
9,0.62,0.04,1.9,0.146,27,90,0.9984,3.16,0.7,9.4
8.2,1.33,0,1.7,0.081,3,12,0.9964,3.53,0.49,10.9
8.1,1.33,0,1.8,0.082,3,12,0.9964,3.54,0.48,10.9
8,0.59,0.16,1.8,0.065,3,16,0.9962,3.42,0.92,10.5
